{
    "Real-time Parameters": "SLAM demo",
    
     "sensors": [
         { "sensor_type": "radar_P2", 
            "sensor_id": 1,
            "description": "front—right-looking",
            "measurement space": "cosines",
            "sigma_r": 0.2,
            "sigma_u": 0.01,
            "sigma_v": 0.02,
            "pos": [4.05,0.0,0.62],
            "Pfa": 0.02,
            "az_FoV": 50,
            "el_FoV": 20,
            "az_offset": 0,
            "el_offset": 3,
            "doppler_threshold": 1,
            "port":3002},
         { "sensor_type": "radar_R1", 
            "sensor_id": 2,
            "description": "front-left-looking NXP",
            "measurement space": "cosines",
            "sigma_r": 0.2,
            "sigma_u": 0.01,
            "sigma_v": 0.02,
            "pos": [3.66,0.86,0.66],
            "Pfa": 0.05,
            "az_FoV": 50,
            "el_FoV": 20,
            "az_offset": 45,
            "el_offset": 3,
            "doppler_threshold": 1,
            "port": 3001},
         { "sensor_type": "radar_R1", 
            "sensor_id": 3,
            "description": "front—right-looking NXP",
            "measurement space": "cosines",
            "sigma_r": 0.2,
            "sigma_u": 0.01,
            "sigma_v": 0.02,
            "pos": [3.66,-0.86,0.66],
            "Pfa": 0.05,
            "az_FoV": 50,
            "el_FoV": 20,
            "az_offset": -45,
            "el_offset": 3,
            "doppler_threshold": 1,
            "port": 3003},
         { "sensor_type": "lidar", 
            "sensor_id": 4,
            "description": "left-looking",
            "measurement space": "angles",
            "sigma_r": 0.2,
            "sigma_az": 0.01,
            "sigma_el": 0.01,
            "lag": 0,
            "pos": [4.0790,0.37,0.489],
            "Pfa": 0.0000001,
            "az_FoV": 60,
            "el_FoV": 5,
            "az_offset": 2,
            "el_offset": 0},
         { "sensor_type": "lidar", 
            "sensor_id": 5,
            "description": "right-looking",
            "measurement space": "angles",
            "sigma_r": 0.2,
            "sigma_u": 0.01,
            "sigma_v": 0.02,
            "lag": 0,
            "pos": [4.1090,-0.385,0.496],
            "Pfa": 0.0000001,
            "az_FoV": 60,
            "el_FoV": 5,
            "az_offset": 1,
            "el_offset": 0},
          { "sensor_type": "ego", 
            "sensor_id": 6,
            "description": "full 3D gyro",
            "lag": 0,
            "angle_bias": [0,-1,0.5],
            "measurement space": "cartesian",
            "pos": [0.23,0.47,0]}
     ],

    "measurement_grids": [
          { "grid-type": "front-radar grid",
            "grid_index": 1,
            "P_free": 0.45,
            "min_range": 1,
            "max_range": 50,
            "Nr": 200,
            "Nu": 101,
            "Nv": 41},
          { "grid-type": "side-radar grid",
            "grid_index": 2,
            "P_free": 0.45,
            "min_range": 1,
            "max_range": 50,
            "Nr": 200,
            "Nu": 101,
            "Nv": 41},
          { "grid-type": "side-radar grid",
            "grid_index": 3,
            "P_free": 0.45,
            "min_range": 1,
            "max_range": 50,
            "Nr": 200,
            "Nu": 101,
            "Nv": 41},
          { "grid-type": "side-lidar grid",
            "grid_index": 4,
            "P_free": 0.495,
            "min_range": 1,
            "max_range": 50,
            "Nr": 300,
            "Naz": 201,
            "Nel": 21},
          { "grid-type": "side-lidar grid",
            "grid_index": 5,
            "P_free": 0.495,
            "min_range": 1,
            "max_range": 50,
            "Nr": 300,
            "Naz": 201,
            "Nel": 21}
        ]
}
