{
     "Real data Parameters": "SLAM multi-sensor",
    
     "Location": "save airport",

     "date": "2017-08-23",

     "map_type": "OGM",

     "occupancy_grid":{
        "limits": [],
        "dx":0.2,
        "dy":0.2,
        "dz":0.2,
        "sub_dx":10,
        "sub_dy":10,
        "sub_dz":5
     },

    "particle_filter":{
        "matlab_version" : 1,
        "particles":1000,
        "weight_scaling": 0.05,
        "Q_linear":{
            "speed":10,
            "yaw_rate":30,
            "pitch_rate":15.0,
            "roll_rate":15.0},
        "R_linear":{
            "speed":0.02,
            "yaw_rate":0.5,
            "pitch_rate":0.5,
            "roll_rate":0.5},
        "Q_non_linear":{
            "x":1,
            "y":1,
            "z":0.5,
            "yaw":30,
            "pitch":15,
            "roll":15},
        "R_non_linear":{
            "x":10,
            "y":10,
            "z":10}
	},
    "gibbs":{
        "dim":3,
        "S_0":4,
        "v_0":40,
        "alpha_0":0.1,
        "beta_0":0.2,
        "cluster_limit":10
        }
}
