{
     "Real data Parameters": "SLAM multi-sensor",
    
     "Location": "save airport",

     "date": "2017-08-23",
     
     "map_type": "OGM",
    
     "sensors": [
         { "sensor_type": "radar_P2", 
            "sensor_id": 1,
            "description": "front—right-looking",
            "measurement space": "cosines",
            "sigma_r": 0.2,
            "sigma_u": 0.01,
            "sigma_v": 0.02,
            "dt": 0.1,
            "pos": [3.8,-0.18,0.63],
            "Pfa": 0.02,
            "az_FoV": 50,
            "el_FoV": 20,
            "az_offset": 0,
            "el_offset": 3,
            "doppler_threshold": 1},
         { "sensor_type": "radar_R1", 
            "sensor_id": 2,
            "comment": "not avaliable"},
         { "sensor_type": "lidar", 
            "sensor_id": 3,
            "description": "side-looking left",
            "measurement space": "cosines",
            "dt": 0.1,
            "pos": [3.8,0.3,0.45],
            "Pfa": 0.001,
            "az_FoV": 60,
            "el_FoV": 5,
            "az_offset": 30,
            "el_offset": 0.4},
         { "sensor_type": "ego", 
            "sensor_id": 0,
            "description": "full 3D gyro",
            "dt": 0.1,
            "measurement space": "cartesian",
            "pos": [0,0,0]}
     ],

    "measurement_grids": [
          { "grid-type": "front-radar grid",
            "grid_index": 1,
            "P_free": 0.48,
            "min_range": 1,
            "max_range": 50,
            "Nr": 200,
            "Nu": 101,
            "Nv": 51},
          { "grid-type": "side-radar grid",
            "grid_index": 2,
            "comment": "not avaliable"},
          { "grid-type": "side-lidar grid",
            "grid_index": 3,
            "P_free": 0.50,
            "min_range": 1,
            "max_range": 50,
            "Nr": 400,
            "Naz": 400,
            "Nel": 20}
          ]
}
